{
  "title": "RisingSTAR Company Information",
  "description": "Open data relating to companies.",
  "url": "dat://dd364e79611c979473e0996ea8c7024e0b7ef7bb87cb0fc7c4b7af8e7ecc52d6",
  "author": "Mark Birbeck <mark.birbeck@gmail.com> (https://youknowfordevs.com)"
}